Classes/Class_01/Data/two_signals.csv

X,CH1,CH2,Start,Increment,
Sequence,Volt,Volt,-6.000000e-04,2.000000e-09
0,3.20e-01,-1.20e-01,
1,3.60e-01,-1.00e-01,
2,3.60e-01,-1.20e-01,
3,3.60e-01,-1.20e-01,
4,3.20e-01,-1.00e-01,
5,3.60e-01,-1.00e-01,
6,3.60e-01,-1.20e-01,
7,3.20e-01,-1.20e-01,
8,3.20e-01,-1.20e-01,
9,3.60e-01,-1.00e-01,
10,3.60e-01,-1.20e-01,
11,3.20e-01,-1.20e-01,
12,3.20e-01,-1.20e-01,
13,3.60e-01,-1.00e-01,
14,3.60e-01,-1.20e-01,
15,3.20e-01,-1.20e-01,
16,3.20e-01,-1.20e-01,
17,3.60e-01,-1.00e-01,
18,3.60e-01,-1.20e-01,
19,3.20e-01,-1.20e-01,
20,3.20e-01,-1.20e-01,
21,3.20e-01,-1.00e-01,
22,3.20e-01,-1.20e-01,
23,3.20e-01,-1.20e-01,
24,3.20e-01,-1.20e-01,
25,3.60e-01,-1.00e-01,
26,3.60e-01,-1.20e-01,
27,3.20e-01,-1.20e-01,
28,3.20e-01,-1.20e-01,
29,3.60e-01,-1.00e-01,
30,3.20e-01,-1.20e-01,
31,3.20e-01,-1.20e-01,
32,3.20e-01,-1.20e-01,
33,3.60e-01,-1.00e-01,
34,3.60e-01,-1.20e-01,
35,3.20e-01,-1.20e-01,
36,3.20e-01,-1.20e-01,
37,3.60e-01,-1.00e-01,
38,3.60e-01,-1.00e-01,
39,3.20e-01,-1.20e-01,
40,3.20e-01,-1.20e-01,
41,3.20e-01,-1.00e-01,
42,3.60e-01,-1.00e-01,
43,3.20e-01,-1.20e-01,
44,3.20e-01,-1.20e-01,
45,3.60e-01,-1.00e-01,
46,3.20e-01,-1.20e-01,
47,3.20e-01,-1.20e-01,
48,3.20e-01,-1.20e-01,
49,3.20e-01,-1.00e-01,
50,3.20e-01,-1.00e-01,
51,3.20e-01,-1.20e-01,
52,3.20e-01,-1.20e-01,
53,3.20e-01,-1.00e-01,
54,3.20e-01,-1.20e-01,
55,3.20e-01,-1.20e-01,
56,3.20e-01,-1.20e-01,
57,3.20e-01,-1.00e-01,
58,3.60e-01,-1.00e-01,
59,3.20e-01,-1.20e-01,
60,3.20e-01,-1.20e-01,
61,3.60e-01,-1.00e-01,
62,3.20e-01,-1.20e-01,
63,3.20e-01,-1.20e-01,
64,3.20e-01,-1.20e-01,
65,3.20e-01,-1.00e-01,
66,3.20e-01,-1.00e-01,
67,3.20e-01,-1.20e-01,
68,3.20e-01,-1.20e-01,
69,3.20e-01,-1.00e-01,
70,3.20e-01,-1.20e-01,
71,3.20e-01,-1.20e-01,
72,3.20e-01,-1.20e-01,
73,3.20e-01,-1.00e-01,
74,3.20e-01,-1.00e-01,
75,3.20e-01,-1.20e-01,
76,3.00e-01,-1.20e-01,
77,3.20e-01,-1.00e-01,
78,3.20e-01,-1.20e-01,
79,3.20e-01,-1.20e-01,
80,3.20e-01,-1.20e-01,
81,3.20e-01,-1.00e-01,
82,3.20e-01,-1.00e-01,
83,3.00e-01,-1.20e-01,
84,3.20e-01,-1.20e-01,
85,3.20e-01,-1.00e-01,
86,3.20e-01,-1.20e-01,
87,3.20e-01,-1.20e-01,
88,3.20e-01,-1.20e-01,
89,3.20e-01,-1.00e-01,
90,3.20e-01,-1.00e-01,
91,3.00e-01,-1.20e-01,
92,3.00e-01,-1.20e-01,
93,3.20e-01,-1.00e-01,
94,3.20e-01,-1.20e-01,
95,3.00e-01,-1.20e-01,
96,3.00e-01,-1.20e-01,
97,3.20e-01,-1.00e-01,
98,3.20e-01,-1.00e-01,
99,3.20e-01,-1.20e-01,
100,3.00e-01,-1.20e-01,
101,3.20e-01,-1.00e-01,
102,3.20e-01,-1.20e-01,
103,3.20e-01,-1.20e-01,
104,3.20e-01,-1.20e-01,
105,3.20e-01,-1.00e-01,
106,3.20e-01,-1.20e-01,
107,3.00e-01,-1.20e-01,
108,3.20e-01,-1.20e-01,
109,3.20e-01,-1.00e-01,
110,3.20e-01,-1.20e-01,
111,3.00e-01,-1.20e-01,
112,3.20e-01,-1.20e-01,
113,3.20e-01,-1.00e-01,
114,3.20e-01,-1.20e-01,
115,3.20e-01,-1.20e-01,
116,3.00e-01,-1.20e-01,
117,3.20e-01,-1.00e-01,
118,3.20e-01,-1.20e-01,
119,3.00e-01,-1.20e-01,
120,3.20e-01,-1.20e-01,
121,3.20e-01,-1.00e-01,
122,3.20e-01,-1.20e-01,
123,3.00e-01,-1.20e-01,
124,3.00e-01,-1.20e-01,
125,3.20e-01,-1.00e-01,
126,3.20e-01,-1.20e-01,
127,3.00e-01,-1.20e-01,
128,3.00e-01,-1.20e-01,
129,3.20e-01,-1.00e-01,
130,3.20e-01,-1.20e-01,
131,3.00e-01,-1.20e-01,
132,3.00e-01,-1.20e-01,
133,3.20e-01,-1.00e-01,
134,3.20e-01,-1.00e-01,
135,3.00e-01,-1.00e-01,
136,3.00e-01,-1.20e-01,
137,3.20e-01,-1.00e-01,
138,3.20e-01,-1.20e-01,
139,3.00e-01,-1.20e-01,
140,3.00e-01,-1.20e-01,
141,3.20e-01,-1.00e-01,
142,3.00e-01,-1.20e-01,
143,3.20e-01,-1.20e-01,
144,3.00e-01,-1.20e-01,
145,3.20e-01,-1.00e-01,
146,3.20e-01,-1.00e-01,
147,3.00e-01,-1.20e-01,
148,3.00e-01,-1.40e-01,
149,3.20e-01,-1.00e-01,
150,3.00e-01,-1.20e-01,
151,3.00e-01,-1.20e-01,
152,3.00e-01,-1.20e-01,
153,3.00e-01,-1.00e-01,
154,3.00e-01,-1.00e-01,
155,3.00e-01,-1.20e-01,
156,3.00e-01,-1.20e-01,
157,3.20e-01,-1.00e-01,
158,3.00e-01,-1.20e-01,
159,3.00e-01,-1.20e-01,
160,3.00e-01,-1.20e-01,
161,3.00e-01,-1.00e-01,
162,3.20e-01,-1.00e-01,
163,3.00e-01,-1.20e-01,
164,3.00e-01,-1.20e-01,
165,3.00e-01,-1.00e-01,
166,3.00e-01,-1.20e-01,
167,3.00e-01,-1.20e-01,
168,3.00e-01,-1.20e-01,
169,3.00e-01,-1.00e-01,
170,3.20e-01,-1.00e-01,
171,3.00e-01,-1.20e-01,
172,2.80e-01,-1.20e-01,
173,3.20e-01,-1.00e-01,
174,3.00e-01,-1.20e-01,
175,3.20e-01,-1.20e-01,
176,3.00e-01,-1.20e-01,
177,3.00e-01,-1.20e-01,
178,3.00e-01,-1.20e-01,
179,3.00e-01,-1.20e-01,
180,3.00e-01,-1.20e-01,
181,3.00e-01,-1.00e-01,
182,3.00e-01,-1.20e-01,
183,3.00e-01,-1.20e-01,
184,3.00e-01,-1.20e-01,
185,3.00e-01,-1.00e-01,
186,3.20e-01,-1.00e-01,
187,3.00e-01,-1.20e-01,
188,3.00e-01,-1.20e-01,
189,3.00e-01,-1.00e-01,
190,3.00e-01,-1.20e-01,
191,3.00e-01,-1.20e-01,
192,3.00e-01,-1.20e-01,
193,3.00e-01,-1.00e-01,
194,3.00e-01,-1.00e-01,
195,3.00e-01,-1.20e-01,
196,2.80e-01,-1.20e-01,
197,3.00e-01,-1.00e-01,
198,3.00e-01,-1.20e-01,
199,3.00e-01,-1.20e-01,
200,3.00e-01,-1.20e-01,
201,3.00e-01,-1.20e-01,
202,3.00e-01,-1.20e-01,
203,3.00e-01,-1.20e-01,
204,2.80e-01,-1.20e-01,
205,3.00e-01,-1.00e-01,
206,3.00e-01,-1.00e-01,
207,3.00e-01,-1.20e-01,
208,3.00e-01,-1.20e-01,
209,3.00e-01,-1.00e-01,
210,3.20e-01,-1.20e-01,
211,3.00e-01,-1.20e-01,
212,2.80e-01,-1.20e-01,
213,3.00e-01,-1.00e-01,
214,3.00e-01,-1.20e-01,
215,3.00e-01,-1.20e-01,
216,3.00e-01,-1.20e-01,
217,3.00e-01,-1.00e-01,
218,3.00e-01,-1.20e-01,
219,3.00e-01,-1.20e-01,
220,2.80e-01,-1.20e-01,
221,3.00e-01,-1.00e-01,
222,3.00e-01,-1.20e-01,
223,2.80e-01,-1.20e-01,
224,2.80e-01,-1.20e-01,
225,3.00e-01,-1.00e-01,
226,3.00e-01,-1.20e-01,
227,2.80e-01,-1.20e-01,
228,2.80e-01,-1.20e-01,
229,3.00e-01,-1.00e-01,
230,3.00e-01,-1.20e-01,
231,2.80e-01,-1.20e-01,
232,3.00e-01,-1.20e-01,
233,2.80e-01,-1.00e-01,
234,3.00e-01,-1.20e-01,
235,2.80e-01,-1.20e-01,
236,2.80e-01,-1.20e-01,
237,3.00e-01,-1.00e-01,
238,3.00e-01,-1.20e-01,
239,3.00e-01,-1.20e-01,
240,2.80e-01,-1.20e-01,
241,3.00e-01,-1.00e-01,
242,3.00e-01,-1.20e-01,
243,2.80e-01,-1.20e-01,
244,2.80e-01,-1.20e-01,
245,3.00e-01,-1.00e-01,
246,3.00e-01,-1.20e-01,
247,3.00e-01,-1.20e-01,
248,2.80e-01,-1.20e-01,
249,3.00e-01,-1.00e-01,
250,3.00e-01,-1.00e-01,
251,2.80e-01,-1.20e-01,
252,2.80e-01,-1.20e-01,
253,3.00e-01,-1.00e-01,
254,2.80e-01,-1.20e-01,
255,2.80e-01,-1.20e-01,
256,2.80e-01,-1.20e-01,
257,3.00e-01,-1.00e-01,
258,3.00e-01,-1.20e-01,
259,2.80e-01,-1.20e-01,
260,2.80e-01,-1.40e-01,
261,3.00e-01,-1.20e-01,
262,3.00e-01,-1.20e-01,
263,2.80e-01,-1.20e-01,
264,2.80e-01,-1.20e-01,
265,3.00e-01,-1.00e-01,
266,3.00e-01,-1.20e-01,
267,2.80e-01,-1.20e-01,
268,2.80e-01,-1.20e-01,
269,3.00e-01,-1.20e-01,
270,2.80e-01,-1.20e-01,
271,2.80e-01,-1.20e-01,
272,2.80e-01,-1.20e-01,
273,2.80e-01,-1.00e-01,
274,3.00e-01,-1.20e-01,
275,2.80e-01,-1.20e-01,
276,2.80e-01,-1.20e-01,
277,3.00e-01,-1.00e-01,
278,2.80e-01,-1.20e-01,
279,2.80e-01,-1.20e-01,
280,2.80e-01,-1.20e-01,
281,2.80e-01,-1.00e-01,
282,3.00e-01,-1.20e-01,
283,2.80e-01,-1.20e-01,
284,2.80e-01,-1.20e-01,
285,2.80e-01,-1.00e-01,
286,2.80e-01,-1.20e-01,
287,2.80e-01,-1.20e-01,
288,2.80e-01,-1.20e-01,
289,2.80e-01,-1.00e-01,
290,2.80e-01,-1.20e-01,
291,2.80e-01,-1.20e-01,
292,2.80e-01,-1.20e-01,
293,3.00e-01,-1.00e-01,
294,3.00e-01,-1.20e-01,
295,2.80e-01,-1.20e-01,
296,2.80e-01,-1.20e-01,
297,2.80e-01,-1.00e-01,
298,2.80e-01,-1.20e-01,
299,2.80e-01,-1.20e-01,
300,2.80e-01,-1.20e-01,
301,2.80e-01,-1.00e-01,
302,2.80e-01,-1.20e-01,
303,2.60e-01,-1.20e-01,
304,2.80e-01,-1.20e-01,
305,2.80e-01,-1.20e-01,
306,3.00e-01,-1.20e-01,
307,2.80e-01,-1.20e-01,
308,2.60e-01,-1.20e-01,
309,2.80e-01,-1.20e-01,
310,2.80e-01,-1.20e-01,
311,2.80e-01,-1.20e-01,
312,2.80e-01,-1.20e-01,
313,2.80e-01,-1.00e-01,
314,2.80e-01,-1.20e-01,
315,2.80e-01,-1.20e-01,
316,2.60e-01,-1.20e-01,
317,3.00e-01,-1.20e-01,
318,2.80e-01,-1.20e-01,
319,2.80e-01,-1.20e-01,
320,2.80e-01,-1.20e-01,
321,2.80e-01,-1.00e-01,
322,3.00e-01,-1.20e-01,
323,2.80e-01,-1.20e-01,
324,2.60e-01,-1.20e-01,
325,2.80e-01,-1.00e-01,
326,2.80e-01,-1.20e-01,
327,2.60e-01,-1.20e-01,
328,2.60e-01,-1.20e-01,
329,2.60e-01,-1.20e-01,
330,2.80e-01,-1.20e-01,
331,2.80e-01,-1.20e-01,
332,2.60e-01,-1.20e-01,
333,2.80e-01,-1.00e-01,
334,2.80e-01,-1.20e-01,
335,2.60e-01,-1.20e-01,
336,2.60e-01,-1.20e-01,
337,2.80e-01,-1.00e-01,
338,2.80e-01,-1.20e-01,
339,2.80e-01,-1.20e-01,
340,2.60e-01,-1.20e-01,
341,2.80e-01,-1.20e-01,
342,2.80e-01,-1.20e-01,
343,2.80e-01,-1.20e-01,
344,2.60e-01,-1.40e-01,
345,2.80e-01,-1.00e-01,
346,2.80e-01,-1.20e-01,
347,2.80e-01,-1.20e-01,
348,2.60e-01,-1.20e-01,
349,2.80e-01,-1.00e-01,
350,2.80e-01,-1.20e-01,
351,2.60e-01,-1.20e-01,
352,2.60e-01,-1.20e-01,
353,2.80e-01,-1.00e-01,
354,2.60e-01,-1.20e-01,
355,2.60e-01,-1.20e-01,
356,2.60e-01,-1.20e-01,
357,2.80e-01,-1.00e-01,
358,2.80e-01,-1.20e-01,
359,2.60e-01,-1.40e-01,
360,2.60e-01,-1.20e-01,
361,2.60e-01,-1.20e-01,
362,2.80e-01,-1.20e-01,
363,2.60e-01,-1.20e-01,
364,2.60e-01,-1.20e-01,
365,2.80e-01,-1.00e-01,
366,2.80e-01,-1.20e-01,
367,2.60e-01,-1.20e-01,
368,2.60e-01,-1.20e-01,
369,2.80e-01,-1.00e-01,
370,2.60e-01,-1.20e-01,
371,2.60e-01,-1.20e-01,
372,2.60e-01,-1.20e-01,
373,2.80e-01,-1.00e-01,
374,2.80e-01,-1.20e-01,
375,2.60e-01,-1.20e-01,
376,2.60e-01,-1.20e-01,
377,2.60e-01,-1.00e-01,
378,2.60e-01,-1.20e-01,
379,2.60e-01,-1.20e-01,
380,2.60e-01,-1.20e-01,
381,2.80e-01,-1.20e-01,
382,2.80e-01,-1.20e-01,
383,2.60e-01,-1.20e-01,
384,2.80e-01,-1.20e-01,
385,2.80e-01,-1.00e-01,
386,2.80e-01,-1.20e-01,
387,2.60e-01,-1.20e-01,
388,2.60e-01,-1.20e-01,
389,2.60e-01,-1.20e-01,
390,2.60e-01,-1.20e-01,
391,2.60e-01,-1.20e-01,
392,2.60e-01,-1.20e-01,
393,2.60e-01,-1.00e-01,
394,2.80e-01,-1.20e-01,
395,2.60e-01,-1.20e-01,
396,2.60e-01,-1.20e-01,
397,2.60e-01,-1.00e-01,
398,2.60e-01,-1.20e-01,
399,2.60e-01,-1.20e-01,
400,2.60e-01,-1.40e-01,
401,2.60e-01,-1.00e-01,
402,2.80e-01,-1.20e-01,
403,2.60e-01,-1.20e-01,
404,2.60e-01,-1.20e-01,
405,2.80e-01,-1.00e-01,
406,2.60e-01,-1.20e-01,
407,2.60e-01,-1.20e-01,
408,2.60e-01,-1.20e-01,
409,2.60e-01,-1.00e-01,
410,2.80e-01,-1.20e-01,
411,2.60e-01,-1.20e-01,
412,2.60e-01,-1.20e-01,
413,2.80e-01,-1.20e-01,
414,2.80e-01,-1.20e-01,
415,2.60e-01,-1.40e-01,
416,2.60e-01,-1.40e-01,
417,2.60e-01,-1.00e-01,
418,2.60e-01,-1.20e-01,
419,2.60e-01,-1.20e-01,
420,2.60e-01,-1.20e-01,
421,2.60e-01,-1.00e-01,
422,2.60e-01,-1.20e-01,
423,2.60e-01,-1.20e-01,
424,2.60e-01,-1.20e-01,
425,2.60e-01,-1.00e-01,
426,2.60e-01,-1.20e-01,
427,2.60e-01,-1.20e-01,
428,2.60e-01,-1.20e-01,
429,2.60e-01,-1.00e-01,
430,2.80e-01,-1.20e-01,
431,2.60e-01,-1.20e-01,
432,2.60e-01,-1.20e-01,
433,2.60e-01,-1.20e-01,
434,2.60e-01,-1.20e-01,
435,2.60e-01,-1.20e-01,
436,2.40e-01,-1.20e-01,
437,2.80e-01,-1.20e-01,
438,2.60e-01,-1.20e-01,
439,2.60e-01,-1.20e-01,
440,2.40e-01,-1.20e-01,
441,2.60e-01,-1.00e-01,
442,2.60e-01,-1.20e-01,
443,2.60e-01,-1.20e-01,
444,2.60e-01,-1.40e-01,
445,2.60e-01,-1.20e-01,
446,2.60e-01,-1.20e-01,
447,2.60e-01,-1.20e-01,
448,2.60e-01,-1.20e-01,
449,2.60e-01,-1.20e-01,
450,2.60e-01,-1.20e-01,
451,2.60e-01,-1.20e-01,
452,2.40e-01,-1.20e-01,
453,2.60e-01,-1.00e-01,
454,2.60e-01,-1.20e-01,
455,2.60e-01,-1.20e-01,
456,2.40e-01,-1.20e-01,
457,2.60e-01,-1.20e-01,
458,2.60e-01,-1.20e-01,
459,2.60e-01,-1.20e-01,
460,2.40e-01,-1.20e-01,
461,2.60e-01,-1.00e-01,
462,2.60e-01,-1.20e-01,
463,2.60e-01,-1.20e-01,
464,2.40e-01,-1.20e-01,
465,2.60e-01,-1.20e-01,
466,2.60e-01,-1.20e-01,
467,2.60e-01,-1.20e-01,
468,2.40e-01,-1.20e-01,
469,2.60e-01,-1.20e-01,
470,2.60e-01,-1.20e-01,
471,2.60e-01,-1.20e-01,
472,2.40e-01,-1.20e-01,
473,2.60e-01,-1.20e-01,
474,2.60e-01,-1.20e-01,
475,2.60e-01,-1.20e-01,
476,2.40e-01,-1.20e-01,
477,2.60e-01,-1.20e-01,
478,2.60e-01,-1.20e-01,
479,2.40e-01,-1.20e-01,
480,2.60e-01,-1.20e-01,
481,2.60e-01,-1.00e-01,
482,2.60e-01,-1.20e-01,
483,2.40e-01,-1.20e-01,
484,2.40e-01,-1.20e-01,
485,2.60e-01,-1.20e-01,
486,2.60e-01,-1.20e-01,
487,2.40e-01,-1.40e-01,
488,2.40e-01,-1.20e-01,
489,2.60e-01,-1.20e-01,
490,2.60e-01,-1.20e-01,
491,2.40e-01,-1.20e-01,
492,2.40e-01,-1.20e-01,
493,2.60e-01,-1.20e-01,
494,2.60e-01,-1.20e-01,
495,2.40e-01,-1.20e-01,
496,2.40e-01,-1.20e-01,
497,2.60e-01,-1.20e-01,
498,2.60e-01,-1.20e-01,
499,2.60e-01,-1.20e-01,
500,2.40e-01,-1.20e-01,
501,2.60e-01,-1.20e-01,
502,2.60e-01,-1.20e-01,
503,2.40e-01,-1.20e-01,
504,2.60e-01,-1.40e-01,
505,2.60e-01,-1.20e-01,
506,2.60e-01,-1.20e-01,
507,2.40e-01,-1.20e-01,
508,2.40e-01,-1.20e-01,
509,2.40e-01,-1.00e-01,
510,2.40e-01,-1.20e-01,
511,2.40e-01,-1.20e-01,
512,2.40e-01,-1.40e-01,
513,2.60e-01,-1.20e-01,
514,2.40e-01,-1.20e-01,
515,2.40e-01,-1.40e-01,
516,2.40e-01,-1.20e-01,
517,2.60e-01,-1.00e-01,
518,2.60e-01,-1.20e-01,
519,2.40e-01,-1.20e-01,
520,2.40e-01,-1.20e-01,
521,2.60e-01,-1.20e-01,
522,2.60e-01,-1.20e-01,
523,2.40e-01,-1.20e-01,
524,2.40e-01,-1.40e-01,
525,2.60e-01,-1.20e-01,
526,2.40e-01,-1.20e-01,
527,2.40e-01,-1.20e-01,
528,2.40e-01,-1.40e-01,
529,2.40e-01,-1.20e-01,
530,2.40e-01,-1.20e-01,
531,2.40e-01,-1.40e-01,
532,2.40e-01,-1.40e-01,
533,2.60e-01,-1.00e-01,
534,2.60e-01,-1.20e-01,
535,2.40e-01,-1.20e-01,
536,2.40e-01,-1.20e-01,
537,2.40e-01,-1.20e-01,
538,2.40e-01,-1.20e-01,
539,2.40e-01,-1.20e-01,
540,2.40e-01,-1.20e-01,
541,2.40e-01,-1.00e-01,
542,2.40e-01,-1.20e-01,
543,2.40e-01,-1.20e-01,
544,2.40e-01,-1.20e-01,
545,2.40e-01,-1.00e-01,
546,2.40e-01,-1.20e-01,
547,2.40e-01,-1.20e-01,
548,2.40e-01,-1.40e-01,
549,2.60e-01,-1.20e-01,
550,2.40e-01,-1.20e-01,
551,2.40e-01,-1.20e-01,
552,2.40e-01,-1.20e-01,
553,2.40e-01,-1.20e-01,
554,2.40e-01,-1.20e-01,
555,2.40e-01,-1.40e-01,
556,2.20e-01,-1.40e-01,
557,2.40e-01,-1.20e-01,
558,2.40e-01,-1.20e-01,
559,2.40e-01,-1.20e-01,
560,2.40e-01,-1.20e-01,
561,2.40e-01,-1.20e-01,
562,2.40e-01,-1.20e-01,
563,2.40e-01,-1.20e-01,
564,2.20e-01,-1.20e-01,
565,2.40e-01,-1.20e-01,
566,2.40e-01,-1.20e-01,
567,2.40e-01,-1.20e-01,
568,2.20e-01,-1.40e-01,
569,2.40e-01,-1.20e-01,
570,2.40e-01,-1.20e-01,
571,2.40e-01,-1.40e-01,
572,2.20e-01,-1.20e-01,
573,2.40e-01,-1.00e-01,
574,2.40e-01,-1.20e-01,
575,2.40e-01,-1.40e-01,
576,2.40e-01,-1.40e-01,
577,2.40e-01,-1.20e-01,
578,2.40e-01,-1.00e-01,
579,2.20e-01,-1.40e-01,
580,2.20e-01,-1.40e-01,
581,2.40e-01,-1.20e-01,
582,2.40e-01,-1.20e-01,
583,2.20e-01,-1.20e-01,
584,2.20e-01,-1.40e-01,
585,2.40e-01,-1.20e-01,
586,2.40e-01,-1.20e-01,
587,2.40e-01,-1.40e-01,
588,2.20e-01,-1.20e-01,
589,2.40e-01,-1.20e-01,
590,2.40e-01,-1.20e-01,
591,2.20e-01,-1.20e-01,
592,2.20e-01,-1.20e-01,
593,2.40e-01,-1.20e-01,
594,2.40e-01,-1.20e-01,
595,2.20e-01,-1.40e-01,
596,2.20e-01,-1.20e-01,
597,2.40e-01,-1.20e-01,
598,2.20e-01,-1.20e-01,
599,2.20e-01,-1.40e-01,
600,2.20e-01,-1.40e-01,
601,2.40e-01,-1.20e-01,
602,2.40e-01,-1.20e-01,
603,2.20e-01,-1.40e-01,
604,2.20e-01,-1.20e-01,
605,2.40e-01,-1.20e-01,
606,2.40e-01,-1.20e-01,
607,2.20e-01,-1.20e-01,
608,2.20e-01,-1.40e-01,
609,2.40e-01,-1.20e-01,
610,2.40e-01,-1.20e-01,
611,2.40e-01,-1.40e-01,
612,2.20e-01,-1.40e-01,
613,2.40e-01,-1.20e-01,
614,2.40e-01,-1.20e-01,
615,2.20e-01,-1.20e-01,
616,2.20e-01,-1.20e-01,
617,2.20e-01,-1.20e-01,
618,2.40e-01,-1.20e-01,
619,2.20e-01,-1.40e-01,
620,2.20e-01,-1.20e-01,
621,2.20e-01,-1.00e-01,
622,2.40e-01,-1.20e-01,
623,2.20e-01,-1.20e-01,
624,2.20e-01,-1.40e-01,
625,2.20e-01,-1.20e-01,
626,2.20e-01,-1.20e-01,
627,2.20e-01,-1.40e-01,
628,2.20e-01,-1.20e-01,
629,2.40e-01,-1.20e-01,
630,2.20e-01,-1.20e-01,
631,2.40e-01,-1.20e-01,
632,2.20e-01,-1.20e-01,
633,2.20e-01,-1.20e-01,
634,2.40e-01,-1.20e-01,
635,2.20e-01,-1.20e-01,
636,2.20e-01,-1.40e-01,
637,2.40e-01,-1.20e-01,
638,2.40e-01,-1.20e-01,
639,2.20e-01,-1.40e-01,
640,2.20e-01,-1.40e-01,
641,2.40e-01,-1.00e-01,
642,2.40e-01,-1.20e-01,
643,2.20e-01,-1.40e-01,
644,2.20e-01,-1.20e-01,
645,2.40e-01,-1.20e-01,
646,2.20e-01,-1.20e-01,
647,2.20e-01,-1.40e-01,
648,2.20e-01,-1.40e-01,
649,2.40e-01,-1.00e-01,
650,2.20e-01,-1.20e-01,
651,2.20e-01,-1.20e-01,
652,2.20e-01,-1.20e-01,
653,2.40e-01,-1.20e-01,
654,2.20e-01,-1.20e-01,
655,2.20e-01,-1.20e-01,
656,2.20e-01,-1.20e-01,
657,2.20e-01,-1.20e-01,
658,2.20e-01,-1.40e-01,
659,2.20e-01,-1.40e-01,
660,2.20e-01,-1.20e-01,
661,2.40e-01,-1.20e-01,
662,2.20e-01,-1.20e-01,
663,2.20e-01,-1.40e-01,
664,2.20e-01,-1.20e-01,
665,2.20e-01,-1.20e-01,
666,2.20e-01,-1.20e-01,
667,2.20e-01,-1.40e-01,
668,2.00e-01,-1.20e-01,
669,2.40e-01,-1.20e-01,
670,2.20e-01,-1.20e-01,
671,2.20e-01,-1.20e-01,
672,2.20e-01,-1.40e-01,
673,2.20e-01,-1.00e-01,
674,2.20e-01,-1.20e-01,
675,2.20e-01,-1.20e-01,
676,2.20e-01,-1.20e-01,
677,2.20e-01,-1.20e-01,
678,2.20e-01,-1.20e-01,
679,2.20e-01,-1.40e-01,
680,2.20e-01,-1.20e-01,
681,2.20e-01,-1.20e-01,
682,2.20e-01,-1.20e-01,
683,2.20e-01,-1.40e-01,
684,2.00e-01,-1.20e-01,
685,2.20e-01,-1.20e-01,
686,2.20e-01,-1.20e-01,
687,2.20e-01,-1.40e-01,
688,2.00e-01,-1.20e-01,
689,2.20e-01,-1.20e-01,
690,2.20e-01,-1.20e-01,
691,2.20e-01,-1.20e-01,
692,2.00e-01,-1.40e-01,
693,2.20e-01,-1.20e-01,
694,2.20e-01,-1.40e-01,
695,2.00e-01,-1.20e-01,
696,2.00e-01,-1.40e-01,
697,2.20e-01,-1.20e-01,
698,2.20e-01,-1.20e-01,
699,2.20e-01,-1.40e-01,
700,2.00e-01,-1.40e-01,
701,2.20e-01,-1.20e-01,
702,2.20e-01,-1.20e-01,
703,2.20e-01,-1.40e-01,
704,2.20e-01,-1.40e-01,
705,2.20e-01,-1.20e-01,
706,2.20e-01,-1.20e-01,
707,2.20e-01,-1.40e-01,
708,2.00e-01,-1.40e-01,
709,2.20e-01,-1.20e-01,
710,2.20e-01,-1.20e-01,
711,2.00e-01,-1.20e-01,
712,2.00e-01,-1.40e-01,
713,2.20e-01,-1.20e-01,
714,2.20e-01,-1.20e-01,
715,2.00e-01,-1.40e-01,
716,2.00e-01,-1.20e-01,
717,2.20e-01,-1.20e-01,
718,2.20e-01,-1.20e-01,
719,2.20e-01,-1.20e-01,
720,2.20e-01,-1.40e-01,
721,2.00e-01,-1.20e-01,
722,2.20e-01,-1.20e-01,
723,2.00e-01,-1.20e-01,
724,2.00e-01,-1.20e-01,
725,2.20e-01,-1.20e-01,
726,2.00e-01,-1.20e-01,
727,2.00e-01,-1.40e-01,
728,2.20e-01,-1.40e-01,
729,2.20e-01,-1.20e-01,
730,2.20e-01,-1.20e-01,
731,2.00e-01,-1.40e-01,
732,2.00e-01,-1.40e-01,
733,2.20e-01,-1.00e-01,
734,2.20e-01,-1.40e-01,
735,2.00e-01,-1.20e-01,
736,2.00e-01,-1.40e-01,
737,2.20e-01,-1.20e-01,
738,2.20e-01,-1.20e-01,
739,2.00e-01,-1.40e-01,
740,2.00e-01,-1.40e-01,
741,2.20e-01,-1.20e-01,
742,2.20e-01,-1.40e-01,
743,2.00e-01,-1.20e-01,
744,2.00e-01,-1.40e-01,
745,2.20e-01,-1.20e-01,
746,2.20e-01,-1.20e-01,
747,2.00e-01,-1.20e-01,
748,2.00e-01,-1.40e-01,
749,2.20e-01,-1.20e-01,
750,2.20e-01,-1.20e-01,
751,2.00e-01,-1.20e-01,
752,2.00e-01,-1.40e-01,
753,2.00e-01,-1.20e-01,
754,2.20e-01,-1.20e-01,
755,2.00e-01,-1.40e-01,
756,2.00e-01,-1.20e-01,
757,2.20e-01,-1.20e-01,
758,2.20e-01,-1.20e-01,
759,2.00e-01,-1.20e-01,
760,2.00e-01,-1.40e-01,
761,2.00e-01,-1.20e-01,
762,2.20e-01,-1.20e-01,
763,2.00e-01,-1.40e-01,
764,1.80e-01,-1.20e-01,
765,2.20e-01,-1.20e-01,
766,2.00e-01,-1.20e-01,
767,2.00e-01,-1.40e-01,
768,2.00e-01,-1.20e-01,
769,2.20e-01,-1.20e-01,
770,2.00e-01,-1.20e-01,
771,2.00e-01,-1.40e-01,
772,1.80e-01,-1.40e-01,
773,2.20e-01,-1.20e-01,
774,2.00e-01,-1.20e-01,
775,2.00e-01,-1.40e-01,
776,2.00e-01,-1.40e-01,
777,2.00e-01,-1.20e-01,
778,2.00e-01,-1.20e-01,
779,2.00e-01,-1.20e-01,
780,2.00e-01,-1.20e-01,
781,2.20e-01,-1.20e-01,
782,2.00e-01,-1.20e-01,
783,2.00e-01,-1.20e-01,
784,2.00e-01,-1.40e-01,
785,2.00e-01,-1.20e-01,
786,2.00e-01,-1.20e-01,
787,2.00e-01,-1.40e-01,
788,2.00e-01,-1.20e-01,
789,2.00e-01,-1.20e-01,
790,2.00e-01,-1.40e-01,
791,2.00e-01,-1.40e-01,
792,2.00e-01,-1.40e-01,
793,2.20e-01,-1.20e-01,
794,2.00e-01,-1.20e-01,
795,2.00e-01,-1.20e-01,
796,1.80e-01,-1.40e-01,
797,2.00e-01,-1.20e-01,
798,2.00e-01,-1.20e-01,
799,2.00e-01,-1.40e-01,
800,2.00e-01,-1.20e-01,
801,2.00e-01,-1.20e-01,
802,2.20e-01,-1.20e-01,
803,2.00e-01,-1.20e-01,
804,1.80e-01,-1.40e-01,
805,2.00e-01,-1.20e-01,
806,2.00e-01,-1.20e-01,
807,2.00e-01,-1.20e-01,
808,2.00e-01,-1.40e-01,
809,2.00e-01,-1.20e-01,
810,2.00e-01,-1.20e-01,
811,2.00e-01,-1.20e-01,
812,2.00e-01,-1.40e-01,
813,2.20e-01,-1.20e-01,
814,2.00e-01,-1.20e-01,
815,2.00e-01,-1.20e-01,
816,1.80e-01,-1.40e-01,
817,2.00e-01,-1.20e-01,
818,2.00e-01,-1.20e-01,
819,2.00e-01,-1.40e-01,
820,1.80e-01,-1.20e-01,
821,2.00e-01,-1.20e-01,
822,2.00e-01,-1.40e-01,
823,1.80e-01,-1.20e-01,
824,2.00e-01,-1.20e-01,
825,2.00e-01,-1.20e-01,
826,2.00e-01,-1.20e-01,
827,2.00e-01,-1.40e-01,
828,1.80e-01,-1.40e-01,
829,2.00e-01,-1.20e-01,
830,2.00e-01,-1.40e-01,
831,2.00e-01,-1.20e-01,
832,2.00e-01,-1.40e-01,
833,2.00e-01,-1.20e-01,
